[
  {
    "id": 1,
    "title": "Недоволен качеством услуг"
  },
  {
    "id": 2,
    "title": "Расторжение договора"
  },
  {
    "id": 3,
    "title": "Не приходит письмо активации на почту"
  },
  {
    "id": 4,
    "title": "Не работает личный кабинет"
  }
]